…
    ## Rows: 822 Columns: 9
    ## ── Column specification ────────────────────────────────────────────────────────
    ## Delimiter: ","
    ## dbl  (8): prez_gop, gov_gop, sen_gop, rep_gop, prez_dem, gov_dem, sen_dem, r...
    ## date (1): mon
    ## 
    ## ℹ Use `spec()` to retrieve the full column specification for this data.
    ## ℹ Specify the column types or set `show_col_types = FALSE` to quiet this message.

``` r
pols_month_df
```

    ## # A tibble: 822 × 9
    ##   year  month    gov_gop sen_gop rep_gop gov_dem sen_dem rep_dem president
    ##   <chr> <chr>      <dbl>   <dbl>   <dbl>   <dbl>   <dbl>   <dbl> <chr>    
    ## 1 1947  January       23      51     253      23      45     198 dem      
    ## 2 1947  February      23      51     253      23      45     198 dem      
    ## 3 1947  March         23      51     253      23      45     198 dem      
    ## 4 1947  April         23      51     253      23      45     198 dem      
    ## 5 1947  May           23      51     253      23      45     198 dem      
    ## # ℹ 817 more rows
…
    ## Rows: 787 Columns: 2
    ## ── Column specification ────────────────────────────────────────────────────────
    ## Delimiter: ","
    ## chr (1): date
    ## dbl (1): close
    ## 
    ## ℹ Use `spec()` to retrieve the full column specification for this data.
    ## ℹ Specify the column types or set `show_col_types = FALSE` to quiet this message.

``` r
snp_df
```

    ## # A tibble: 787 × 4
    ##   month    day   year  close
    ##   <chr>    <chr> <chr> <dbl>
    ## 1 April    3     1950   18.0
    ## 2 August   1     1950   18.4
    ## 3 December 1     1950   20.4
    ## 4 February 1     1950   17.2
    ## 5 January  3     1950   17.0
    ## # ℹ 782 more rows
…
    ## Rows: 68 Columns: 13
    ## ── Column specification ────────────────────────────────────────────────────────
    ## Delimiter: ","
    ## dbl (13): Year, Jan, Feb, Mar, Apr, May, Jun, Jul, Aug, Sep, Oct, Nov, Dec
    ## 
    ## ℹ Use `spec()` to retrieve the full column specification for this data.
    ## ℹ Specify the column types or set `show_col_types = FALSE` to quiet this message.

``` r
unemployment_df
```

    ## # A tibble: 816 × 3
    ##   year  month    percentage_of_unemployment
    ##   <chr> <chr>                         <dbl>
    ## 1 1948  January                         3.4
    ## 2 1948  February                        3.8
    ## 3 1948  March                           4  
    ## 4 1948  April                           3.9
    ## 5 1948  May                             3.5
    ## # ℹ 811 more rows
…
``` r
problem1_df = 
  left_join(pols_month_df, snp_df) |>
  left_join(unemployment_df)
```

    ## Joining with `by = join_by(year, month)`
    ## Joining with `by = join_by(year, month)`

``` r
problem1_df
```

    ## # A tibble: 822 × 12
    ##   year  month    gov_gop sen_gop rep_gop gov_dem sen_dem rep_dem president day  
    ##   <chr> <chr>      <dbl>   <dbl>   <dbl>   <dbl>   <dbl>   <dbl> <chr>     <chr>
    ## 1 1947  January       23      51     253      23      45     198 dem       <NA> 
    ## 2 1947  February      23      51     253      23      45     198 dem       <NA> 
    ## 3 1947  March         23      51     253      23      45     198 dem       <NA> 
    ## 4 1947  April         23      51     253      23      45     198 dem       <NA> 
    ## 5 1947  May           23      51     253      23      45     198 dem       <NA> 
    ## # ℹ 817 more rows
    ## # ℹ 2 more variables: close <dbl>, percentage_of_unemployment <dbl>
…
``` r
mr_wheel_trash_df = 
  readxl::read_excel("data/trash_wheel_datasets/Trash Wheel Collection Data.xlsx",
                     sheet = "Mr. Trash Wheel",
                     range = "A2:N550") |>
  janitor::clean_names() |>
  drop_na(dumpster)

mr_wheel_trash_df
```

    ## # A tibble: 547 × 14
    ##   dumpster month year  date                weight_tons volume_cubic_yards
    ##      <dbl> <chr> <chr> <dttm>                    <dbl>              <dbl>
    ## 1        1 May   2014  2014-05-16 00:00:00        4.31                 18
    ## 2        2 May   2014  2014-05-16 00:00:00        2.74                 13
    ## 3        3 May   2014  2014-05-16 00:00:00        3.45                 15
    ## 4        4 May   2014  2014-05-17 00:00:00        3.1                  15
    ## 5        5 May   2014  2014-05-17 00:00:00        4.06                 18
    ## # ℹ 542 more rows
    ## # ℹ 8 more variables: plastic_bottles <dbl>, polystyrene <dbl>,
    ## #   cigarette_butts <dbl>, glass_bottles <dbl>, grocery_bags <dbl>,
    ## #   chip_bags <dbl>, sports_balls <dbl>, homes_powered <dbl>
…
- Homes Powered - Each ton of trash equates to on average 500 kilowatts
  of electricity. An average household will use 30 kilowatts per day.

``` r
mr_wheel_trash_df = mutate(mr_wheel_trash_df,
                           homes_powered = weight_tons * 500 / 30)

mr_wheel_trash_df
```

    ## # A tibble: 547 × 14
    ##   dumpster month year  date                weight_tons volume_cubic_yards
    ##      <dbl> <chr> <chr> <dttm>                    <dbl>              <dbl>
    ## 1        1 May   2014  2014-05-16 00:00:00        4.31                 18
    ## 2        2 May   2014  2014-05-16 00:00:00        2.74                 13
    ## 3        3 May   2014  2014-05-16 00:00:00        3.45                 15
    ## 4        4 May   2014  2014-05-17 00:00:00        3.1                  15
    ## 5        5 May   2014  2014-05-17 00:00:00        4.06                 18
    ## # ℹ 542 more rows
    ## # ℹ 8 more variables: plastic_bottles <dbl>, polystyrene <dbl>,
    ## #   cigarette_butts <dbl>, glass_bottles <dbl>, grocery_bags <dbl>,
    ## #   chip_bags <dbl>, sports_balls <dbl>, homes_powered <dbl>
## tidy and process more data

Use a similar process to import, clean, and organize the data for
Professor Trash Wheel and Gwynnda, and combine these with the Mr. Trash
Wheel dataset to produce a single tidy dataset. To keep track of which
Trash Wheel is which, you may need to add an additional variable to all
datasets before combining.

``` r
mr_wheel_trash_df = mutate(mr_wheel_trash_df, trash_wheel = "mr")

mr_wheel_trash_df
```

    ## # A tibble: 547 × 15
    ##   dumpster month year  date                weight_tons volume_cubic_yards
    ##      <dbl> <chr> <chr> <dttm>                    <dbl>              <dbl>
    ## 1        1 May   2014  2014-05-16 00:00:00        4.31                 18
    ## 2        2 May   2014  2014-05-16 00:00:00        2.74                 13
    ## 3        3 May   2014  2014-05-16 00:00:00        3.45                 15
    ## 4        4 May   2014  2014-05-17 00:00:00        3.1                  15
    ## 5        5 May   2014  2014-05-17 00:00:00        4.06                 18
    ## # ℹ 542 more rows
    ## # ℹ 9 more variables: plastic_bottles <dbl>, polystyrene <dbl>,
    ## #   cigarette_butts <dbl>, glass_bottles <dbl>, grocery_bags <dbl>,
    ## #   chip_bags <dbl>, sports_balls <dbl>, homes_powered <dbl>, trash_wheel <chr>
``` r
professor_wheel_trash_df = 
  readxl::read_excel("data/trash_wheel_datasets/Trash Wheel Collection Data.xlsx",
                     sheet = "Professor Trash Wheel",
                     range = "A2:M97") |>
  janitor::clean_names() |>
  drop_na(dumpster) |>
  mutate(homes_powered = weight_tons * 500 / 30,
         trash_wheel = "professor",
         year = as.character(year))

professor_wheel_trash_df
```

    ## # A tibble: 94 × 14
    ##   dumpster month    year  date                weight_tons volume_cubic_yards
    ##      <dbl> <chr>    <chr> <dttm>                    <dbl>              <dbl>
    ## 1        1 January  2017  2017-01-02 00:00:00        1.79                 15
    ## 2        2 January  2017  2017-01-30 00:00:00        1.58                 15
    ## 3        3 February 2017  2017-02-26 00:00:00        2.32                 18
    ## 4        4 February 2017  2017-02-26 00:00:00        3.72                 15
    ## 5        5 February 2017  2017-02-28 00:00:00        1.45                 15
    ## # ℹ 89 more rows
    ## # ℹ 8 more variables: plastic_bottles <dbl>, polystyrene <dbl>,
    ## #   cigarette_butts <dbl>, glass_bottles <dbl>, grocery_bags <dbl>,
    ## #   chip_bags <dbl>, homes_powered <dbl>, trash_wheel <chr>
``` r
gwynnda_df = 
  readxl::read_excel("data/trash_wheel_datasets/Trash Wheel Collection Data.xlsx",
                     sheet = "Gwynnda Trash Wheel",
                     range = "A2:K110") |>
  janitor::clean_names() |>
  drop_na(dumpster) |>
  mutate(homes_powered = weight_tons * 500 / 30,
         trash_wheel = "gwynnda",
         year = as.character(year))

gwynnda_df
```

    ## # A tibble: 106 × 12
    ##   dumpster month year  date                weight_tons volume_cubic_yards
    ##      <dbl> <chr> <chr> <dttm>                    <dbl>              <dbl>
    ## 1        1 July  2021  2021-07-03 00:00:00        0.93                 15
    ## 2        2 July  2021  2021-07-07 00:00:00        2.26                 15
    ## 3        3 July  2021  2021-07-07 00:00:00        1.62                 15
    ## 4        4 July  2021  2021-07-16 00:00:00        1.76                 15
    ## 5        5 July  2021  2021-07-30 00:00:00        1.53                 15
    ## # ℹ 101 more rows
    ## # ℹ 6 more variables: plastic_bottles <dbl>, polystyrene <dbl>,
    ## #   cigarette_butts <dbl>, plastic_bags <dbl>, homes_powered <dbl>,
    ## #   trash_wheel <chr>
…
    ## Joining with `by = join_by(dumpster, month, year, date, weight_tons,
    ## volume_cubic_yards, plastic_bottles, polystyrene, cigarette_butts,
    ## glass_bottles, grocery_bags, chip_bags, homes_powered, trash_wheel)`
    ## Joining with `by = join_by(dumpster, month, year, date, weight_tons,
    ## volume_cubic_yards, plastic_bottles, polystyrene, cigarette_butts,
    ## homes_powered, trash_wheel)`

``` r
problem2_df
```

    ## # A tibble: 747 × 16
    ##   dumpster month year  date                weight_tons volume_cubic_yards
    ##      <dbl> <chr> <chr> <dttm>                    <dbl>              <dbl>
    ## 1        1 May   2014  2014-05-16 00:00:00        4.31                 18
    ## 2        2 May   2014  2014-05-16 00:00:00        2.74                 13
    ## 3        3 May   2014  2014-05-16 00:00:00        3.45                 15
    ## 4        4 May   2014  2014-05-17 00:00:00        3.1                  15
    ## 5        5 May   2014  2014-05-17 00:00:00        4.06                 18
    ## # ℹ 742 more rows
    ## # ℹ 10 more variables: plastic_bottles <dbl>, polystyrene <dbl>,
    ## #   cigarette_butts <dbl>, glass_bottles <dbl>, grocery_bags <dbl>,
    ## #   chip_bags <dbl>, sports_balls <dbl>, homes_powered <dbl>,
    ## #   trash_wheel <chr>, plastic_bags <dbl>
…
mci_baseline_df
```

    ## # A tibble: 97 × 6
    ##      id current_age sex   education apoe4 age_at_onset
    ##   <dbl>       <dbl> <fct>     <dbl> <fct>        <dbl>
    ## 1     3        62.5 1            16 1             66.8
    ## 2     5        66   1            16 0             68.7
    ## 3     7        66.5 1            18 0             74  
    ## 4    13        63.1 1            12 1             69  
    ## 5    14        58.4 0            20 0             66.2
    ## # ℹ 92 more rows
…
    ## Rows: 487 Columns: 6
    ## ── Column specification ────────────────────────────────────────────────────────
    ## Delimiter: ","
    ## chr (5): Baseline, Time 2, Time 4, Time 6, Time 8
    ## dbl (1): Study ID
    ## 
    ## ℹ Use `spec()` to retrieve the full column specification for this data.
    ## ℹ Specify the column types or set `show_col_types = FALSE` to quiet this message.

``` r
mci_amyloid_df
```

    ## # A tibble: 487 × 6
    ##      id baseline    time_2      time_4      time_6      time_8     
    ##   <dbl> <chr>       <chr>       <chr>       <chr>       <chr>      
    ## 1     1 0.1105487   <NA>        0.109325197 0.104756131 0.107257697
    ## 2     2 0.107481183 0.109157373 0.109457839 0.105729713 0.10661845 
    ## 3     3 0.106087034 0.108744509 0.106065035 <NA>        0.106152357
    ## 4     4 0.109251358 0.108699686 0.110540386 0.107476797 0.111212209
    ## 5     5 0.107950408 0.112273883 0.115139677 0.106606054 0.106052066
    ## # ℹ 482 more rows
…
``` r
antijoin2_df = anti_join(mci_amyloid_df, mci_baseline_df)
```

    ## Joining with `by = join_by(id)`

``` r
antijoin2_df
```

    ## # A tibble: 393 × 6
    ##      id baseline    time_2      time_4      time_6      time_8     
    ##   <dbl> <chr>       <chr>       <chr>       <chr>       <chr>      
    ## 1     1 0.1105487   <NA>        0.109325197 0.104756131 0.107257697
    ## 2     2 0.107481183 0.109157373 0.109457839 0.105729713 0.10661845 
    ## 3     4 0.109251358 0.108699686 0.110540386 0.107476797 0.111212209
    ## 4     6 0.112426974 0.112853415 0.11143945  0.110279277 0.114982747
    ## 5     8 0.109563372 0.109470828 <NA>        0.108742168 0.110268552
    ## # ℹ 388 more rows
…
Use the function `inner_join` to combine the two datasets so that only
participants who appear in both datasets will be retained. Then export
the result and save it as a csv document.

``` r
innerjoin_df = inner_join(mci_baseline_df, mci_amyloid_df)
```

    ## Joining with `by = join_by(id)`

``` r
innerjoin_df
```

    ## # A tibble: 94 × 11
    ##      id current_age sex   education apoe4 age_at_onset baseline    time_2 time_4
    ##   <dbl>       <dbl> <fct>     <dbl> <fct>        <dbl> <chr>       <chr>  <chr> 
    ## 1     3        62.5 1            16 1             66.8 0.106087034 0.108… 0.106…
    ## 2     5        66   1            16 0             68.7 0.107950408 0.112… 0.115…
    ## 3     7        66.5 1            18 0             74   0.112246391 <NA>   0.104…
    ## 4    13        63.1 1            12 1             69   0.110300505 0.108… 0.108…
    ## 5    18        67.8 1            16 0             69.8 0.114137255 0.107… 0.110…
    ## # ℹ 89 more rows
    ## # ℹ 2 more variables: time_6 <chr>, time_8 <chr>
…
